%YAML 1.1
%TAG !u! tag:unity3d.com,2011:
--- !u!114 &11400000
MonoBehaviour:
  m_ObjectHideFlags: 0
  m_CorrespondingSourceObject: {fileID: 0}
  m_PrefabInstance: {fileID: 0}
  m_PrefabAsset: {fileID: 0}
  m_GameObject: {fileID: 0}
  m_Enabled: 1
  m_EditorHideFlags: 0
  m_Script: {fileID: 11500000, guid: 79dc851e6df9fba4695d9eb1df4d8768, type: 3}
  m_Name: Fuel
  m_EditorClassIdentifier: 
  name: Fuel
  sprite: {fileID: 21300000, guid: 73ffb15cfe3c4284499db86e785ab53a, type: 3}
  prefab: {fileID: 2839315092305376492, guid: acf78a4bf37a9734582d125dd81e36b6, type: 3}
  unitWeight: 1
